{
    "editor.detectIndentation": true,
    "editor.fontSize": 18,
    "editor.fontFamily": "Mononoki Nerd Font, 'Hack', monospace",
    "C_Cpp.errorSquiggles": "Disabled",
    "files.associations": {
        "*.mqh": "cpp",
        "*.mq4": "cpp",
        "*.mq5": "cpp"
    },
    // "terminal.integrated.shell.windows": "C:\\Windows\\System32\\WindowsPowerShell\\v1.0\\powershell.exe",
    "compilemql4.logDir": "test",
    "compilemql4.metaeditorDir": "C:\\Program Files (x86)\\MetaTrader 4 IC Markets\\metaeditor.exe",
    "compilemql4.includeDir": "C:\\Users\\lucas\\AppData\\Roaming\\MetaQuotes\\Terminal\\1DAFD9A7C67DC84FE37EAA1FC1E5CF75\\MQL4",
    "compilemql4.compileAfterSave": false,
    "editor.minimap.enabled": false,
    "editor.renderWhitespace": "all",
    "workbench.editorAssociations": {
        "*.ipynb": "jupyter-notebook"
    },
    "C_Cpp.updateChannel": "Insiders",
    "editor.tabSize": 4,
    "editor.cursorStyle": "line",
    "editor.insertSpaces": true,
    "editor.lineNumbers": "on",
    "vim.easymotion": true,
    "vim.incsearch": true,
    "vim.useSystemClipboard": true,
    "vim.useCtrlKeys": true,
    "vim.hlsearch": true,
    "vim.insertModeKeyBindings": [
        {
            "before": [
                "i",
                "i"
            ],
            "after": [
                "<Esc>"
            ]
        }
    ],
    "vim.normalModeKeyBindingsNonRecursive": [
        {
            "before": [
                "<leader>",
                "d"
            ],
            "after": [
                "d",
                "d"
            ]
        },
        {
            "before": [
                "<C-n>"
            ],
            "commands": [
                ":nohl"
            ]
        }
    ],
    "vim.leader": "<space>",
    "vim.handleKeys": {
        "<C-a>": false,
        "<C-f>": false
    },
    "[rust]": {
        "editor.defaultFormatter": "statiolake.vscode-rustfmt"
    },
    "notebook.cellToolbarLocation": {
        "default": "right",
        "jupyter-notebook": "left"
    },
    "python.formatting.provider": "black",
    "shellLauncher.shells.windows": [
        {
            "shell": "C:\\cygwin64\\bin\\zsh.exe",
            "label": "zsh"
        }
    ],
    "terminal.integrated.fontSize": 18,
    "editor.formatOnSave": true,
    "workbench.iconTheme": "material-icon-theme",
    "workbench.colorTheme": "Visual Studio Light",
    "telemetry.enableCrashReporter": false,
    "telemetry.enableTelemetry": false,
    "code-runner.enableAppInsights": false,
    "terminal.integrated.defaultProfile.windows": "Git Bash"
}